^C:\USERS\NAME\SOURCE\REPOS\PROG1004_2021_GROUP3\PROJECT1\PROJECT1\SOURCE.CPP
C:\USERS\NAME\SOURCE\REPOS\PROG1004_2021_GROUP3\PROJECT1\PROJECT1\DEBUG\VC142.PDB
C:\USERS\NAME\SOURCE\REPOS\PROG1004_2021_GROUP3\PROJECT1\PROJECT1\DEBUG\VC142.IDB
C:\USERS\NAME\SOURCE\REPOS\PROG1004_2021_GROUP3\PROJECT1\PROJECT1\DEBUG\SOURCE.OBJ
